module training_diary

go 1.16

require (
	github.com/dgrijalva/jwt-go v3.2.0+incompatible // indirect
	github.com/gorilla/mux v1.8.0 // indirect
	github.com/rs/cors v1.8.0 // indirect
	go.mongodb.org/mongo-driver v1.5.3 // indirect
	golang.org/x/crypto v0.0.0-20210513164829-c07d793c2f9a // indirect
)
